//Maya ASCII 2018 scene
//Name: ChipBag_03.ma
//Last modified: Fri, Jan 25, 2019 10:43:54 AM
//Codeset: 1252
requires maya "2018";
currentUnit -l centimeter -a degree -t film;
fileInfo "application" "maya";
fileInfo "product" "Maya 2018";
fileInfo "version" "2018";
fileInfo "cutIdentifier" "201706261615-f9658c4cfc";
fileInfo "osv" "Microsoft Windows 8 Enterprise Edition, 64-bit  (Build 9200)\n";
fileInfo "license" "education";
createNode transform -s -n "persp";
	rename -uid "0922EDB5-46FD-CD91-3DA6-C3940C2488DB";
	setAttr ".v" no;
	setAttr ".t" -type "double3" 1.104666324272269 -0.82116771791786747 0.41223823024093664 ;
	setAttr ".r" -type "double3" 140.06164727034678 -104.19999999997357 0 ;
createNode camera -s -n "perspShape" -p "persp";
	rename -uid "778C9E1D-41C5-936A-367C-C78024CB08F3";
	setAttr -k off ".v" no;
	setAttr ".fl" 34.999999999999993;
	setAttr ".coi" 1.4237544835871629;
	setAttr ".imn" -type "string" "persp";
	setAttr ".den" -type "string" "persp_depth";
	setAttr ".man" -type "string" "persp_mask";
	setAttr ".hc" -type "string" "viewSet -p %camera";
	setAttr ".ai_translator" -type "string" "perspective";
createNode transform -s -n "top";
	rename -uid "800D8085-41F4-AD24-F6ED-27A1E57C294F";
	setAttr ".v" no;
	setAttr ".t" -type "double3" 0 1000.1 0 ;
	setAttr ".r" -type "double3" -89.999999999999986 0 0 ;
createNode camera -s -n "topShape" -p "top";
	rename -uid "3C3E115E-45C7-787A-33F8-C1B687DC4247";
	setAttr -k off ".v" no;
	setAttr ".rnd" no;
	setAttr ".coi" 1000.1;
	setAttr ".ow" 30;
	setAttr ".imn" -type "string" "top";
	setAttr ".den" -type "string" "top_depth";
	setAttr ".man" -type "string" "top_mask";
	setAttr ".hc" -type "string" "viewSet -t %camera";
	setAttr ".o" yes;
	setAttr ".ai_translator" -type "string" "orthographic";
createNode transform -s -n "front";
	rename -uid "D6705D78-4FD7-017F-9248-8E87064C082B";
	setAttr ".v" no;
	setAttr ".t" -type "double3" 0 0 1000.1 ;
createNode camera -s -n "frontShape" -p "front";
	rename -uid "896D215E-4604-F759-8189-999CC2A2C363";
	setAttr -k off ".v" no;
	setAttr ".rnd" no;
	setAttr ".coi" 1000.1;
	setAttr ".ow" 30;
	setAttr ".imn" -type "string" "front";
	setAttr ".den" -type "string" "front_depth";
	setAttr ".man" -type "string" "front_mask";
	setAttr ".hc" -type "string" "viewSet -f %camera";
	setAttr ".o" yes;
	setAttr ".ai_translator" -type "string" "orthographic";
createNode transform -s -n "side";
	rename -uid "78A0B6C3-4600-2403-68B8-7481F4EA1237";
	setAttr ".v" no;
	setAttr ".t" -type "double3" 1000.1 0 0 ;
	setAttr ".r" -type "double3" 0 89.999999999999986 0 ;
createNode camera -s -n "sideShape" -p "side";
	rename -uid "30B1A2B1-4074-614E-7967-F7A34DDAE441";
	setAttr -k off ".v" no;
	setAttr ".rnd" no;
	setAttr ".coi" 1000.1;
	setAttr ".ow" 30;
	setAttr ".imn" -type "string" "side";
	setAttr ".den" -type "string" "side_depth";
	setAttr ".man" -type "string" "side_mask";
	setAttr ".hc" -type "string" "viewSet -s %camera";
	setAttr ".o" yes;
	setAttr ".ai_translator" -type "string" "orthographic";
createNode transform -n "pCube1";
	rename -uid "C71941B4-4524-44F6-1449-C2B1FCEBABC0";
	setAttr ".s" -type "double3" 0.13017791755116137 0.012773620407625664 0.078848807964718923 ;
createNode mesh -n "pCubeShape1" -p "pCube1";
	rename -uid "DABFFE42-42B7-3B4E-8240-0FA5794939B1";
	setAttr -k off ".v";
	setAttr ".vir" yes;
	setAttr ".vif" yes;
	setAttr ".pv" -type "double2" 0.50000089406967163 0.6252807080745697 ;
	setAttr ".uvst[0].uvsn" -type "string" "map1";
	setAttr ".cuvs" -type "string" "map1";
	setAttr ".dcc" -type "string" "Ambient+Diffuse";
	setAttr ".covm[0]"  0 1 1;
	setAttr ".cdvm[0]"  0 1 1;
	setAttr ".ai_translator" -type "string" "polymesh";
createNode lightLinker -s -n "lightLinker1";
	rename -uid "EBE733B7-4FAB-FDCB-529C-F98B804C2D06";
	setAttr -s 2 ".lnk";
	setAttr -s 2 ".slnk";
createNode shapeEditorManager -n "shapeEditorManager";
	rename -uid "E8C9F12D-48E3-6EE8-AB0A-5DAD5BE0FC28";
createNode poseInterpolatorManager -n "poseInterpolatorManager";
	rename -uid "3AC91E3F-41DE-D52B-91CA-27B73418FFA2";
createNode displayLayerManager -n "layerManager";
	rename -uid "C3B01BBA-462D-D40F-286E-7B819F7A2A3F";
createNode displayLayer -n "defaultLayer";
	rename -uid "7FDD3791-4B2D-8425-1B03-EF8280EDB9ED";
createNode renderLayerManager -n "renderLayerManager";
	rename -uid "DDE4EF4A-4EE7-36CE-287D-4DAD021ECEF1";
createNode renderLayer -n "defaultRenderLayer";
	rename -uid "C738D309-47FD-F4FC-05ED-4B847C18A269";
	setAttr ".g" yes;
createNode polyCube -n "polyCube1";
	rename -uid "6D7FC03E-41EF-D679-3DF5-5C830FBE60ED";
	setAttr ".cuv" 4;
createNode polySplitRing -n "polySplitRing1";
	rename -uid "72036F8B-46CB-6ADD-173D-6E9CC04DFEE9";
	setAttr ".uopa" yes;
	setAttr ".ics" -type "componentList" 2 "e[4:5]" "e[8:9]";
	setAttr ".ix" -type "matrix" 1 0 0 0 0 0.34919154904404481 0 0 0 0 1 0 0 0 0 1;
	setAttr ".wt" 0.51666897535324097;
	setAttr ".dr" no;
	setAttr ".re" 5;
	setAttr ".sma" 29.999999999999996;
	setAttr ".p[0]"  0 0 1;
	setAttr ".fq" yes;
createNode polySplitRing -n "polySplitRing2";
	rename -uid "68164397-479D-5D11-22FA-63AD0220121F";
	setAttr ".uopa" yes;
	setAttr ".ics" -type "componentList" 4 "e[6:7]" "e[10:11]" "e[16]" "e[19]";
	setAttr ".ix" -type "matrix" 1 0 0 0 0 0.34919154904404481 0 0 0 0 1 0 0 0 0 1;
	setAttr ".wt" 0.82226204872131348;
	setAttr ".dr" no;
	setAttr ".re" 7;
	setAttr ".sma" 29.999999999999996;
	setAttr ".p[0]"  0 0 1;
	setAttr ".fq" yes;
createNode polySplitRing -n "polySplitRing3";
	rename -uid "6E20A0DC-40B5-1395-0A59-41A382158AB7";
	setAttr ".uopa" yes;
	setAttr ".ics" -type "componentList" 5 "e[6:7]" "e[16]" "e[25]" "e[27]" "e[29]";
	setAttr ".ix" -type "matrix" 1 0 0 0 0 0.34919154904404481 0 0 0 0 1 0 0 0 0 1;
	setAttr ".wt" 0.63786762952804565;
	setAttr ".dr" no;
	setAttr ".re" 7;
	setAttr ".sma" 29.999999999999996;
	setAttr ".p[0]"  0 0 1;
	setAttr ".fq" yes;
createNode polySplitRing -n "polySplitRing4";
	rename -uid "B2B0150E-47BB-A5B8-3A65-96969E0B2E17";
	setAttr ".uopa" yes;
	setAttr ".ics" -type "componentList" 5 "e[6:7]" "e[16]" "e[37]" "e[39]" "e[41]";
	setAttr ".ix" -type "matrix" 1 0 0 0 0 0.34919154904404481 0 0 0 0 1 0 0 0 0 1;
	setAttr ".wt" 0.46669697761535645;
	setAttr ".re" 7;
	setAttr ".sma" 29.999999999999996;
	setAttr ".p[0]"  0 0 1;
	setAttr ".fq" yes;
createNode polySplitRing -n "polySplitRing5";
	rename -uid "13397B28-4DA0-8422-91E3-DDAD72E4B90E";
	setAttr ".uopa" yes;
	setAttr ".ics" -type "componentList" 9 "e[4:5]" "e[15]" "e[17]" "e[26]" "e[30]" "e[38]" "e[42]" "e[50]" "e[54]";
	setAttr ".ix" -type "matrix" 1 0 0 0 0 0.34919154904404481 0 0 0 0 1 0 0 0 0 1;
	setAttr ".wt" 0.083192594349384308;
	setAttr ".dr" no;
	setAttr ".re" 17;
	setAttr ".sma" 29.999999999999996;
	setAttr ".p[0]"  0 0 1;
	setAttr ".fq" yes;
createNode polyTweakUV -n "polyTweakUV1";
	rename -uid "AFD0112E-4B2C-BA27-EBD6-EDB1D37D784F";
	setAttr ".uopa" yes;
	setAttr -s 5 ".uvtk";
	setAttr ".uvtk[5]" -type "float2" -6.2496874e-06 0.12080694 ;
	setAttr ".uvtk[11]" -type "float2" -7.0106238e-05 -0.1208069 ;
	setAttr ".uvtk[18]" -type "float2" -6.2496874e-06 -7.3570359e-06 ;
	setAttr ".uvtk[19]" -type "float2" -3.5090939e-05 7.3581741e-06 ;
createNode polyMergeVert -n "polyMergeVert1";
	rename -uid "A980F4B0-4C9C-1137-C28A-BAA9001B82E0";
	setAttr ".ics" -type "componentList" 2 "vtx[5]" "vtx[11]";
	setAttr ".ix" -type "matrix" 1 0 0 0 0 0.34919154904404481 0 0 0 0 1 0 0 0 0 1;
	setAttr ".d" 1e-06;
createNode polyTweak -n "polyTweak1";
	rename -uid "BABEEC78-47B6-EC30-BE27-90933C3EA59F";
	setAttr ".uopa" yes;
	setAttr -s 2 ".tk";
	setAttr ".tk[5]" -type "float3" 0 -0.48333102 0 ;
createNode polyTweakUV -n "polyTweakUV2";
	rename -uid "1E2C9392-453A-C99F-B306-FC931372F786";
	setAttr ".uopa" yes;
	setAttr -s 5 ".uvtk";
	setAttr ".uvtk[4]" -type "float2" 1.2481079e-05 0.12083117 ;
	setAttr ".uvtk[13]" -type "float2" 7.0106333e-05 -0.1208069 ;
	setAttr ".uvtk[16]" -type "float2" 3.5108558e-05 7.3582164e-06 ;
	setAttr ".uvtk[17]" -type "float2" 8.1724911e-06 -1.4336691e-05 ;
createNode polyMergeVert -n "polyMergeVert2";
	rename -uid "BCA9BEFE-445F-19AF-B0D8-FDA4355E5566";
	setAttr ".ics" -type "componentList" 2 "vtx[4]" "vtx[10]";
	setAttr ".ix" -type "matrix" 1 0 0 0 0 0.34919154904404481 0 0 0 0 1 0 0 0 0 1;
	setAttr ".d" 1e-06;
createNode polyTweak -n "polyTweak2";
	rename -uid "DB827036-44B6-1A6F-2A85-E5994DC75BD2";
	setAttr ".uopa" yes;
	setAttr -s 2 ".tk";
	setAttr ".tk[4]" -type "float3" 0 -0.48333102 0 ;
createNode polyTweakUV -n "polyTweakUV3";
	rename -uid "47C1E2A6-4198-90B1-D69E-F89BE6F01A90";
	setAttr ".uopa" yes;
	setAttr -s 5 ".uvtk";
	setAttr ".uvtk[7]" -type "float2" -6.2496874e-06 -0.11839505 ;
	setAttr ".uvtk[10]" -type "float2" -7.0061593e-05 0.11839511 ;
	setAttr ".uvtk[46]" -type "float2" -7.6314627e-06 2.228519e-06 ;
	setAttr ".uvtk[47]" -type "float2" -5.063722e-05 -2.5828742e-06 ;
createNode polyMergeVert -n "polyMergeVert3";
	rename -uid "F8EE09D3-41C2-9A63-A71A-8D95F3C678FA";
	setAttr ".ics" -type "componentList" 2 "vtx[7]" "vtx[28]";
	setAttr ".ix" -type "matrix" 1 0 0 0 0 0.34919154904404481 0 0 0 0 1 0 0 0 0 1;
	setAttr ".d" 1e-06;
createNode polyTweak -n "polyTweak3";
	rename -uid "0D244F5F-42DD-7D43-2D45-F8B25638651D";
	setAttr ".uopa" yes;
	setAttr -s 3 ".tk";
	setAttr ".tk[7]" -type "float3" 0 0.47368595 0 ;
createNode polyTweakUV -n "polyTweakUV4";
	rename -uid "9CD5C6A0-4026-5223-CF0D-A7A81F2B66A3";
	setAttr ".uopa" yes;
	setAttr -s 5 ".uvtk";
	setAttr ".uvtk[6]" -type "float2" 1.2293463e-05 -0.11841971 ;
	setAttr ".uvtk[12]" -type "float2" 7.0106333e-05 0.11839511 ;
	setAttr ".uvtk[46]" -type "float2" 5.0620074e-05 -2.582814e-06 ;
	setAttr ".uvtk[47]" -type "float2" 1.1574119e-05 1.1615823e-05 ;
createNode polyMergeVert -n "polyMergeVert4";
	rename -uid "68F35D7C-4B12-88AA-F218-CBABFE7FF965";
	setAttr ".ics" -type "componentList" 2 "vtx[6]" "vtx[28]";
	setAttr ".ix" -type "matrix" 1 0 0 0 0 0.34919154904404481 0 0 0 0 1 0 0 0 0 1;
	setAttr ".d" 1e-06;
createNode polyTweak -n "polyTweak4";
	rename -uid "151F429D-40B8-08BC-B719-328961F64A71";
	setAttr ".uopa" yes;
	setAttr -s 2 ".tk";
	setAttr ".tk[6]" -type "float3" 0 0.47368595 0 ;
createNode polyExtrudeFace -n "polyExtrudeFace1";
	rename -uid "479AB166-4A15-D22C-88F2-22A79FB4B594";
	setAttr ".ics" -type "componentList" 1 "f[2]";
	setAttr ".ix" -type "matrix" 1 0 0 0 0 0.34919154904404481 0 0 0 0 1 0 0 0 0 1;
	setAttr ".ws" yes;
	setAttr ".pvt" -type "float3" 0 -0.0016839899 -0.5 ;
	setAttr ".rs" 37977;
	setAttr ".c[0]"  0 1 1;
	setAttr ".cbn" -type "double3" -0.5 -0.0091886451677092949 -0.5 ;
	setAttr ".cbx" -type "double3" 0.5 0.0058206653245752174 -0.5 ;
createNode polyTweak -n "polyTweak5";
	rename -uid "95C0274C-4FD9-C1B1-8C6C-338A951AF13C";
	setAttr ".uopa" yes;
	setAttr -s 4 ".tk[36:39]" -type "float3"  0 0 -0.12237878 0 0 -0.12237878
		 0 0 -0.12237878 0 0 -0.12237878;
createNode deleteComponent -n "deleteComponent1";
	rename -uid "C7368F08-4226-F423-FF66-DDA2F3F89805";
	setAttr ".dc" -type "componentList" 3 "f[0]" "f[6]" "f[31]";
createNode polySplitRing -n "polySplitRing6";
	rename -uid "F70A2322-48E1-1550-BED5-AB9F6DE5727C";
	setAttr ".uopa" yes;
	setAttr ".ics" -type "componentList" 4 "e[10]" "e[27]" "e[39]" "e[51]";
	setAttr ".ix" -type "matrix" 1 0 0 0 0 0.34919154904404481 0 0 0 0 1 0 0 0 0 1;
	setAttr ".wt" 0.45740038156509399;
	setAttr ".re" 10;
	setAttr ".sma" 29.999999999999996;
	setAttr ".p[0]"  0 0 1;
	setAttr ".fq" yes;
createNode polyTweak -n "polyTweak6";
	rename -uid "AEEF95FF-4CA1-7FF6-7AAD-81B15E1FF22A";
	setAttr ".uopa" yes;
	setAttr -s 16 ".tk";
	setAttr ".tk[0]" -type "float3" 0.27454594 0 0 ;
	setAttr ".tk[1]" -type "float3" -0.27454594 0 0 ;
	setAttr ".tk[2]" -type "float3" 0.27454594 0 0 ;
	setAttr ".tk[3]" -type "float3" -0.27454594 0 0 ;
	setAttr ".tk[10]" -type "float3" -0.27454594 0 0 ;
	setAttr ".tk[11]" -type "float3" 0.27454594 0 0 ;
	setAttr ".tk[13]" -type "float3" 0.27454594 0 0 ;
	setAttr ".tk[14]" -type "float3" -0.27454594 0 0 ;
	setAttr ".tk[16]" -type "float3" -0.27454594 0 0 ;
	setAttr ".tk[17]" -type "float3" 0.27454594 0 0 ;
	setAttr ".tk[19]" -type "float3" 0.27454594 0 0 ;
	setAttr ".tk[20]" -type "float3" -0.27454594 0 0 ;
	setAttr ".tk[22]" -type "float3" -0.27454594 0 0 ;
	setAttr ".tk[23]" -type "float3" 0.27454594 0 0 ;
	setAttr ".tk[25]" -type "float3" 0.27454594 0 0 ;
	setAttr ".tk[26]" -type "float3" -0.27454594 0 0 ;
createNode polySplitRing -n "polySplitRing7";
	rename -uid "8BAB589F-44A6-CF3B-7998-CBB65B9A6FA2";
	setAttr ".uopa" yes;
	setAttr ".ics" -type "componentList" 4 "e[5]" "e[26]" "e[38]" "e[50]";
	setAttr ".ix" -type "matrix" 1 0 0 0 0 0.34919154904404481 0 0 0 0 1 0 0 0 0 1;
	setAttr ".wt" 0.49493128061294556;
	setAttr ".re" 5;
	setAttr ".sma" 29.999999999999996;
	setAttr ".p[0]"  0 0 1;
	setAttr ".fq" yes;
createNode polySplitRing -n "polySplitRing8";
	rename -uid "5B8332AF-45FF-33CE-457C-6FADCF2E6667";
	setAttr ".uopa" yes;
	setAttr ".ics" -type "componentList" 4 "e[4]" "e[52]" "e[54]" "e[56]";
	setAttr ".ix" -type "matrix" 1 0 0 0 0 0.34919154904404481 0 0 0 0 1 0 0 0 0 1;
	setAttr ".wt" 0.50925260782241821;
	setAttr ".re" 4;
	setAttr ".sma" 29.999999999999996;
	setAttr ".p[0]"  0 0 1;
	setAttr ".fq" yes;
createNode polySplitRing -n "polySplitRing9";
	rename -uid "8FFBD514-4BAD-6B2E-DDD0-A890B995BBA0";
	setAttr ".uopa" yes;
	setAttr ".ics" -type "componentList" 4 "e[11]" "e[20]" "e[32]" "e[44]";
	setAttr ".ix" -type "matrix" 1 0 0 0 0 0.34919154904404481 0 0 0 0 1 0 0 0 0 1;
	setAttr ".wt" 0.5226786732673645;
	setAttr ".dr" no;
	setAttr ".re" 44;
	setAttr ".sma" 29.999999999999996;
	setAttr ".p[0]"  0 0 1;
	setAttr ".fq" yes;
createNode polyTweak -n "polyTweak7";
	rename -uid "B66885DD-420E-E332-D81B-7594E5AE841D";
	setAttr ".uopa" yes;
	setAttr -s 16 ".tk";
	setAttr ".tk[0]" -type "float3" 0 0.114917 0 ;
	setAttr ".tk[1]" -type "float3" 0 0.114917 0 ;
	setAttr ".tk[2]" -type "float3" 0 -0.114917 0 ;
	setAttr ".tk[3]" -type "float3" 0 -0.114917 0 ;
	setAttr ".tk[10]" -type "float3" 0 -0.114917 0 ;
	setAttr ".tk[11]" -type "float3" 0 -0.114917 0 ;
	setAttr ".tk[13]" -type "float3" 0 0.114917 0 ;
	setAttr ".tk[14]" -type "float3" 0 0.114917 0 ;
	setAttr ".tk[16]" -type "float3" 0 -0.114917 0 ;
	setAttr ".tk[17]" -type "float3" 0 -0.114917 0 ;
	setAttr ".tk[19]" -type "float3" 0 0.114917 0 ;
	setAttr ".tk[20]" -type "float3" 0 0.114917 0 ;
	setAttr ".tk[22]" -type "float3" 0 -0.114917 0 ;
	setAttr ".tk[23]" -type "float3" 0 -0.114917 0 ;
	setAttr ".tk[25]" -type "float3" 0 0.114917 0 ;
	setAttr ".tk[26]" -type "float3" 0 0.114917 0 ;
createNode polySplit -n "polySplit1";
	rename -uid "D2628FCD-41B6-1C7B-3AAA-98B80BBB7315";
	setAttr -s 4 ".e[0:3]"  0 0.51453203 0.485439 0;
	setAttr -s 4 ".d[0:3]"  -2147483567 -2147483632 -2147483631 -2147483551;
	setAttr ".sma" 180;
	setAttr ".m2015" yes;
createNode polySplit -n "polySplit2";
	rename -uid "A4772093-4FD4-2E7D-057D-2EAE9CDFDAFD";
	setAttr -s 4 ".e[0:3]"  0 0.51082402 0.44797099 0;
	setAttr -s 4 ".d[0:3]"  -2147483553 -2147483640 -2147483639 -2147483560;
	setAttr ".sma" 180;
	setAttr ".m2015" yes;
createNode polySoftEdge -n "polySoftEdge1";
	rename -uid "44397EC5-4145-4206-C0FE-18A63E9E86DA";
	setAttr ".uopa" yes;
	setAttr ".ics" -type "componentList" 1 "e[0:113]";
	setAttr ".ix" -type "matrix" 1 0 0 0 0 0.10942136736982076 0 0 0 0 1 0 0 0 0 1;
	setAttr ".a" 180;
createNode polyTweak -n "polyTweak8";
	rename -uid "5D425205-4F17-D8E5-8701-1391C1C89F18";
	setAttr ".uopa" yes;
	setAttr -s 8 ".tk";
	setAttr ".tk[44]" -type "float3" 0.022186339 0.03827903 0 ;
	setAttr ".tk[45]" -type "float3" 0.022186339 0.03827903 0 ;
	setAttr ".tk[46]" -type "float3" 0.022186339 0.03827903 0 ;
	setAttr ".tk[47]" -type "float3" 0.022186339 0.03827903 0 ;
	setAttr ".tk[56]" -type "float3" -0.034963783 0.038907506 0 ;
	setAttr ".tk[57]" -type "float3" 0.035868768 0.041022297 0 ;
	setAttr ".tk[58]" -type "float3" 0.035968948 -0.041022297 0 ;
	setAttr ".tk[59]" -type "float3" -0.035968948 -0.036573086 0 ;
createNode polySoftEdge -n "polySoftEdge2";
	rename -uid "B879348E-4E34-297A-9B08-EB8540F8D8E2";
	setAttr ".uopa" yes;
	setAttr ".ics" -type "componentList" 1 "e[2:3]";
	setAttr ".ix" -type "matrix" 1 0 0 0 0 0.10942136736982076 0 0 0 0 1 0 0 0 0 1;
	setAttr ".a" 0;
createNode script -n "uiConfigurationScriptNode";
	rename -uid "164AF8A1-4E3B-B33C-D967-DC8A31DCA99C";
	setAttr ".b" -type "string" (
		"// Maya Mel UI Configuration File.\n//\n//  This script is machine generated.  Edit at your own risk.\n//\n//\n\nglobal string $gMainPane;\nif (`paneLayout -exists $gMainPane`) {\n\n\tglobal int $gUseScenePanelConfig;\n\tint    $useSceneConfig = $gUseScenePanelConfig;\n\tint    $menusOkayInPanels = `optionVar -q allowMenusInPanels`;\tint    $nVisPanes = `paneLayout -q -nvp $gMainPane`;\n\tint    $nPanes = 0;\n\tstring $editorName;\n\tstring $panelName;\n\tstring $itemFilterName;\n\tstring $panelConfig;\n\n\t//\n\t//  get current state of the UI\n\t//\n\tsceneUIReplacement -update $gMainPane;\n\n\t$panelName = `sceneUIReplacement -getNextPanel \"modelPanel\" (localizedPanelLabel(\"Top View\")) `;\n\tif (\"\" != $panelName) {\n\t\t$label = `panel -q -label $panelName`;\n\t\tmodelPanel -edit -l (localizedPanelLabel(\"Top View\")) -mbv $menusOkayInPanels  $panelName;\n\t\t$editorName = $panelName;\n        modelEditor -e \n            -camera \"top\" \n            -useInteractiveMode 0\n            -displayLights \"default\" \n            -displayAppearance \"smoothShaded\" \n            -activeOnly 0\n"
		+ "            -ignorePanZoom 0\n            -wireframeOnShaded 0\n            -headsUpDisplay 1\n            -holdOuts 1\n            -selectionHiliteDisplay 1\n            -useDefaultMaterial 0\n            -bufferMode \"double\" \n            -twoSidedLighting 0\n            -backfaceCulling 0\n            -xray 0\n            -jointXray 0\n            -activeComponentsXray 0\n            -displayTextures 0\n            -smoothWireframe 0\n            -lineWidth 1\n            -textureAnisotropic 0\n            -textureHilight 1\n            -textureSampling 2\n            -textureDisplay \"modulate\" \n            -textureMaxSize 32768\n            -fogging 0\n            -fogSource \"fragment\" \n            -fogMode \"linear\" \n            -fogStart 0\n            -fogEnd 100\n            -fogDensity 0.1\n            -fogColor 0.5 0.5 0.5 1 \n            -depthOfFieldPreview 1\n            -maxConstantTransparency 1\n            -rendererName \"vp2Renderer\" \n            -objectFilterShowInHUD 1\n            -isFiltered 0\n            -colorResolution 256 256 \n"
		+ "            -bumpResolution 512 512 \n            -textureCompression 0\n            -transparencyAlgorithm \"frontAndBackCull\" \n            -transpInShadows 0\n            -cullingOverride \"none\" \n            -lowQualityLighting 0\n            -maximumNumHardwareLights 1\n            -occlusionCulling 0\n            -shadingModel 0\n            -useBaseRenderer 0\n            -useReducedRenderer 0\n            -smallObjectCulling 0\n            -smallObjectThreshold -1 \n            -interactiveDisableShadows 0\n            -interactiveBackFaceCull 0\n            -sortTransparent 1\n            -controllers 1\n            -nurbsCurves 1\n            -nurbsSurfaces 1\n            -polymeshes 1\n            -subdivSurfaces 1\n            -planes 1\n            -lights 1\n            -cameras 1\n            -controlVertices 1\n            -hulls 1\n            -grid 1\n            -imagePlane 1\n            -joints 1\n            -ikHandles 1\n            -deformers 1\n            -dynamics 1\n            -particleInstancers 1\n            -fluids 1\n"
		+ "            -hairSystems 1\n            -follicles 1\n            -nCloths 1\n            -nParticles 1\n            -nRigids 1\n            -dynamicConstraints 1\n            -locators 1\n            -manipulators 1\n            -pluginShapes 1\n            -dimensions 1\n            -handles 1\n            -pivots 1\n            -textures 1\n            -strokes 1\n            -motionTrails 1\n            -clipGhosts 1\n            -greasePencils 1\n            -shadows 0\n            -captureSequenceNumber -1\n            -width 1\n            -height 1\n            -sceneRenderFilter 0\n            $editorName;\n        modelEditor -e -viewSelected 0 $editorName;\n        modelEditor -e \n            -pluginObjects \"gpuCacheDisplayFilter\" 1 \n            $editorName;\n\t\tif (!$useSceneConfig) {\n\t\t\tpanel -e -l $label $panelName;\n\t\t}\n\t}\n\n\n\t$panelName = `sceneUIReplacement -getNextPanel \"modelPanel\" (localizedPanelLabel(\"Side View\")) `;\n\tif (\"\" != $panelName) {\n\t\t$label = `panel -q -label $panelName`;\n\t\tmodelPanel -edit -l (localizedPanelLabel(\"Side View\")) -mbv $menusOkayInPanels  $panelName;\n"
		+ "\t\t$editorName = $panelName;\n        modelEditor -e \n            -camera \"side\" \n            -useInteractiveMode 0\n            -displayLights \"default\" \n            -displayAppearance \"smoothShaded\" \n            -activeOnly 0\n            -ignorePanZoom 0\n            -wireframeOnShaded 0\n            -headsUpDisplay 1\n            -holdOuts 1\n            -selectionHiliteDisplay 1\n            -useDefaultMaterial 0\n            -bufferMode \"double\" \n            -twoSidedLighting 0\n            -backfaceCulling 0\n            -xray 0\n            -jointXray 0\n            -activeComponentsXray 0\n            -displayTextures 0\n            -smoothWireframe 0\n            -lineWidth 1\n            -textureAnisotropic 0\n            -textureHilight 1\n            -textureSampling 2\n            -textureDisplay \"modulate\" \n            -textureMaxSize 32768\n            -fogging 0\n            -fogSource \"fragment\" \n            -fogMode \"linear\" \n            -fogStart 0\n            -fogEnd 100\n            -fogDensity 0.1\n            -fogColor 0.5 0.5 0.5 1 \n"
		+ "            -depthOfFieldPreview 1\n            -maxConstantTransparency 1\n            -rendererName \"vp2Renderer\" \n            -objectFilterShowInHUD 1\n            -isFiltered 0\n            -colorResolution 256 256 \n            -bumpResolution 512 512 \n            -textureCompression 0\n            -transparencyAlgorithm \"frontAndBackCull\" \n            -transpInShadows 0\n            -cullingOverride \"none\" \n            -lowQualityLighting 0\n            -maximumNumHardwareLights 1\n            -occlusionCulling 0\n            -shadingModel 0\n            -useBaseRenderer 0\n            -useReducedRenderer 0\n            -smallObjectCulling 0\n            -smallObjectThreshold -1 \n            -interactiveDisableShadows 0\n            -interactiveBackFaceCull 0\n            -sortTransparent 1\n            -controllers 1\n            -nurbsCurves 1\n            -nurbsSurfaces 1\n            -polymeshes 1\n            -subdivSurfaces 1\n            -planes 1\n            -lights 1\n            -cameras 1\n            -controlVertices 1\n"
		+ "            -hulls 1\n            -grid 1\n            -imagePlane 1\n            -joints 1\n            -ikHandles 1\n            -deformers 1\n            -dynamics 1\n            -particleInstancers 1\n            -fluids 1\n            -hairSystems 1\n            -follicles 1\n            -nCloths 1\n            -nParticles 1\n            -nRigids 1\n            -dynamicConstraints 1\n            -locators 1\n            -manipulators 1\n            -pluginShapes 1\n            -dimensions 1\n            -handles 1\n            -pivots 1\n            -textures 1\n            -strokes 1\n            -motionTrails 1\n            -clipGhosts 1\n            -greasePencils 1\n            -shadows 0\n            -captureSequenceNumber -1\n            -width 1\n            -height 1\n            -sceneRenderFilter 0\n            $editorName;\n        modelEditor -e -viewSelected 0 $editorName;\n        modelEditor -e \n            -pluginObjects \"gpuCacheDisplayFilter\" 1 \n            $editorName;\n\t\tif (!$useSceneConfig) {\n\t\t\tpanel -e -l $label $panelName;\n"
		+ "\t\t}\n\t}\n\n\n\t$panelName = `sceneUIReplacement -getNextPanel \"modelPanel\" (localizedPanelLabel(\"Front View\")) `;\n\tif (\"\" != $panelName) {\n\t\t$label = `panel -q -label $panelName`;\n\t\tmodelPanel -edit -l (localizedPanelLabel(\"Front View\")) -mbv $menusOkayInPanels  $panelName;\n\t\t$editorName = $panelName;\n        modelEditor -e \n            -camera \"front\" \n            -useInteractiveMode 0\n            -displayLights \"default\" \n            -displayAppearance \"smoothShaded\" \n            -activeOnly 0\n            -ignorePanZoom 0\n            -wireframeOnShaded 0\n            -headsUpDisplay 1\n            -holdOuts 1\n            -selectionHiliteDisplay 1\n            -useDefaultMaterial 0\n            -bufferMode \"double\" \n            -twoSidedLighting 0\n            -backfaceCulling 0\n            -xray 0\n            -jointXray 0\n            -activeComponentsXray 0\n            -displayTextures 0\n            -smoothWireframe 0\n            -lineWidth 1\n            -textureAnisotropic 0\n            -textureHilight 1\n            -textureSampling 2\n"
		+ "            -textureDisplay \"modulate\" \n            -textureMaxSize 32768\n            -fogging 0\n            -fogSource \"fragment\" \n            -fogMode \"linear\" \n            -fogStart 0\n            -fogEnd 100\n            -fogDensity 0.1\n            -fogColor 0.5 0.5 0.5 1 \n            -depthOfFieldPreview 1\n            -maxConstantTransparency 1\n            -rendererName \"vp2Renderer\" \n            -objectFilterShowInHUD 1\n            -isFiltered 0\n            -colorResolution 256 256 \n            -bumpResolution 512 512 \n            -textureCompression 0\n            -transparencyAlgorithm \"frontAndBackCull\" \n            -transpInShadows 0\n            -cullingOverride \"none\" \n            -lowQualityLighting 0\n            -maximumNumHardwareLights 1\n            -occlusionCulling 0\n            -shadingModel 0\n            -useBaseRenderer 0\n            -useReducedRenderer 0\n            -smallObjectCulling 0\n            -smallObjectThreshold -1 \n            -interactiveDisableShadows 0\n            -interactiveBackFaceCull 0\n"
		+ "            -sortTransparent 1\n            -controllers 1\n            -nurbsCurves 1\n            -nurbsSurfaces 1\n            -polymeshes 1\n            -subdivSurfaces 1\n            -planes 1\n            -lights 1\n            -cameras 1\n            -controlVertices 1\n            -hulls 1\n            -grid 1\n            -imagePlane 1\n            -joints 1\n            -ikHandles 1\n            -deformers 1\n            -dynamics 1\n            -particleInstancers 1\n            -fluids 1\n            -hairSystems 1\n            -follicles 1\n            -nCloths 1\n            -nParticles 1\n            -nRigids 1\n            -dynamicConstraints 1\n            -locators 1\n            -manipulators 1\n            -pluginShapes 1\n            -dimensions 1\n            -handles 1\n            -pivots 1\n            -textures 1\n            -strokes 1\n            -motionTrails 1\n            -clipGhosts 1\n            -greasePencils 1\n            -shadows 0\n            -captureSequenceNumber -1\n            -width 1\n            -height 1\n"
		+ "            -sceneRenderFilter 0\n            $editorName;\n        modelEditor -e -viewSelected 0 $editorName;\n        modelEditor -e \n            -pluginObjects \"gpuCacheDisplayFilter\" 1 \n            $editorName;\n\t\tif (!$useSceneConfig) {\n\t\t\tpanel -e -l $label $panelName;\n\t\t}\n\t}\n\n\n\t$panelName = `sceneUIReplacement -getNextPanel \"modelPanel\" (localizedPanelLabel(\"Persp View\")) `;\n\tif (\"\" != $panelName) {\n\t\t$label = `panel -q -label $panelName`;\n\t\tmodelPanel -edit -l (localizedPanelLabel(\"Persp View\")) -mbv $menusOkayInPanels  $panelName;\n\t\t$editorName = $panelName;\n        modelEditor -e \n            -camera \"persp\" \n            -useInteractiveMode 0\n            -displayLights \"default\" \n            -displayAppearance \"smoothShaded\" \n            -activeOnly 0\n            -ignorePanZoom 0\n            -wireframeOnShaded 0\n            -headsUpDisplay 1\n            -holdOuts 1\n            -selectionHiliteDisplay 1\n            -useDefaultMaterial 0\n            -bufferMode \"double\" \n            -twoSidedLighting 0\n            -backfaceCulling 0\n"
		+ "            -xray 0\n            -jointXray 0\n            -activeComponentsXray 0\n            -displayTextures 0\n            -smoothWireframe 0\n            -lineWidth 1\n            -textureAnisotropic 0\n            -textureHilight 1\n            -textureSampling 2\n            -textureDisplay \"modulate\" \n            -textureMaxSize 32768\n            -fogging 0\n            -fogSource \"fragment\" \n            -fogMode \"linear\" \n            -fogStart 0\n            -fogEnd 100\n            -fogDensity 0.1\n            -fogColor 0.5 0.5 0.5 1 \n            -depthOfFieldPreview 1\n            -maxConstantTransparency 1\n            -rendererName \"vp2Renderer\" \n            -objectFilterShowInHUD 1\n            -isFiltered 0\n            -colorResolution 256 256 \n            -bumpResolution 512 512 \n            -textureCompression 0\n            -transparencyAlgorithm \"frontAndBackCull\" \n            -transpInShadows 0\n            -cullingOverride \"none\" \n            -lowQualityLighting 0\n            -maximumNumHardwareLights 1\n            -occlusionCulling 0\n"
		+ "            -shadingModel 0\n            -useBaseRenderer 0\n            -useReducedRenderer 0\n            -smallObjectCulling 0\n            -smallObjectThreshold -1 \n            -interactiveDisableShadows 0\n            -interactiveBackFaceCull 0\n            -sortTransparent 1\n            -controllers 1\n            -nurbsCurves 1\n            -nurbsSurfaces 1\n            -polymeshes 1\n            -subdivSurfaces 1\n            -planes 1\n            -lights 1\n            -cameras 1\n            -controlVertices 1\n            -hulls 1\n            -grid 1\n            -imagePlane 1\n            -joints 1\n            -ikHandles 1\n            -deformers 1\n            -dynamics 1\n            -particleInstancers 1\n            -fluids 1\n            -hairSystems 1\n            -follicles 1\n            -nCloths 1\n            -nParticles 1\n            -nRigids 1\n            -dynamicConstraints 1\n            -locators 1\n            -manipulators 1\n            -pluginShapes 1\n            -dimensions 1\n            -handles 1\n            -pivots 1\n"
		+ "            -textures 1\n            -strokes 1\n            -motionTrails 1\n            -clipGhosts 1\n            -greasePencils 1\n            -shadows 0\n            -captureSequenceNumber -1\n            -width 1319\n            -height 716\n            -sceneRenderFilter 0\n            $editorName;\n        modelEditor -e -viewSelected 0 $editorName;\n        modelEditor -e \n            -pluginObjects \"gpuCacheDisplayFilter\" 1 \n            $editorName;\n\t\tif (!$useSceneConfig) {\n\t\t\tpanel -e -l $label $panelName;\n\t\t}\n\t}\n\n\n\t$panelName = `sceneUIReplacement -getNextPanel \"outlinerPanel\" (localizedPanelLabel(\"ToggledOutliner\")) `;\n\tif (\"\" != $panelName) {\n\t\t$label = `panel -q -label $panelName`;\n\t\toutlinerPanel -edit -l (localizedPanelLabel(\"ToggledOutliner\")) -mbv $menusOkayInPanels  $panelName;\n\t\t$editorName = $panelName;\n        outlinerEditor -e \n            -docTag \"isolOutln_fromSeln\" \n            -showShapes 0\n            -showAssignedMaterials 0\n            -showTimeEditor 1\n            -showReferenceNodes 1\n            -showReferenceMembers 1\n"
		+ "            -showAttributes 0\n            -showConnected 0\n            -showAnimCurvesOnly 0\n            -showMuteInfo 0\n            -organizeByLayer 1\n            -organizeByClip 1\n            -showAnimLayerWeight 1\n            -autoExpandLayers 1\n            -autoExpand 0\n            -showDagOnly 1\n            -showAssets 1\n            -showContainedOnly 1\n            -showPublishedAsConnected 0\n            -showParentContainers 0\n            -showContainerContents 1\n            -ignoreDagHierarchy 0\n            -expandConnections 0\n            -showUpstreamCurves 1\n            -showUnitlessCurves 1\n            -showCompounds 1\n            -showLeafs 1\n            -showNumericAttrsOnly 0\n            -highlightActive 1\n            -autoSelectNewObjects 0\n            -doNotSelectNewObjects 0\n            -dropIsParent 1\n            -transmitFilters 0\n            -setFilter \"defaultSetFilter\" \n            -showSetMembers 1\n            -allowMultiSelection 1\n            -alwaysToggleSelect 0\n            -directSelect 0\n"
		+ "            -isSet 0\n            -isSetMember 0\n            -displayMode \"DAG\" \n            -expandObjects 0\n            -setsIgnoreFilters 1\n            -containersIgnoreFilters 0\n            -editAttrName 0\n            -showAttrValues 0\n            -highlightSecondary 0\n            -showUVAttrsOnly 0\n            -showTextureNodesOnly 0\n            -attrAlphaOrder \"default\" \n            -animLayerFilterOptions \"allAffecting\" \n            -sortOrder \"none\" \n            -longNames 0\n            -niceNames 1\n            -showNamespace 1\n            -showPinIcons 0\n            -mapMotionTrails 0\n            -ignoreHiddenAttribute 0\n            -ignoreOutlinerColor 0\n            -renderFilterVisible 0\n            -renderFilterIndex 0\n            -selectionOrder \"chronological\" \n            -expandAttribute 0\n            $editorName;\n\t\tif (!$useSceneConfig) {\n\t\t\tpanel -e -l $label $panelName;\n\t\t}\n\t}\n\n\n\t$panelName = `sceneUIReplacement -getNextPanel \"outlinerPanel\" (localizedPanelLabel(\"Outliner\")) `;\n\tif (\"\" != $panelName) {\n"
		+ "\t\t$label = `panel -q -label $panelName`;\n\t\toutlinerPanel -edit -l (localizedPanelLabel(\"Outliner\")) -mbv $menusOkayInPanels  $panelName;\n\t\t$editorName = $panelName;\n        outlinerEditor -e \n            -showShapes 0\n            -showAssignedMaterials 0\n            -showTimeEditor 1\n            -showReferenceNodes 0\n            -showReferenceMembers 0\n            -showAttributes 0\n            -showConnected 0\n            -showAnimCurvesOnly 0\n            -showMuteInfo 0\n            -organizeByLayer 1\n            -organizeByClip 1\n            -showAnimLayerWeight 1\n            -autoExpandLayers 1\n            -autoExpand 0\n            -showDagOnly 1\n            -showAssets 1\n            -showContainedOnly 1\n            -showPublishedAsConnected 0\n            -showParentContainers 0\n            -showContainerContents 1\n            -ignoreDagHierarchy 0\n            -expandConnections 0\n            -showUpstreamCurves 1\n            -showUnitlessCurves 1\n            -showCompounds 1\n            -showLeafs 1\n            -showNumericAttrsOnly 0\n"
		+ "            -highlightActive 1\n            -autoSelectNewObjects 0\n            -doNotSelectNewObjects 0\n            -dropIsParent 1\n            -transmitFilters 0\n            -setFilter \"0\" \n            -showSetMembers 1\n            -allowMultiSelection 1\n            -alwaysToggleSelect 0\n            -directSelect 0\n            -displayMode \"DAG\" \n            -expandObjects 0\n            -setsIgnoreFilters 1\n            -containersIgnoreFilters 0\n            -editAttrName 0\n            -showAttrValues 0\n            -highlightSecondary 0\n            -showUVAttrsOnly 0\n            -showTextureNodesOnly 0\n            -attrAlphaOrder \"default\" \n            -animLayerFilterOptions \"allAffecting\" \n            -sortOrder \"none\" \n            -longNames 0\n            -niceNames 1\n            -showNamespace 1\n            -showPinIcons 0\n            -mapMotionTrails 0\n            -ignoreHiddenAttribute 0\n            -ignoreOutlinerColor 0\n            -renderFilterVisible 0\n            $editorName;\n\t\tif (!$useSceneConfig) {\n"
		+ "\t\t\tpanel -e -l $label $panelName;\n\t\t}\n\t}\n\n\n\t$panelName = `sceneUIReplacement -getNextScriptedPanel \"graphEditor\" (localizedPanelLabel(\"Graph Editor\")) `;\n\tif (\"\" != $panelName) {\n\t\t$label = `panel -q -label $panelName`;\n\t\tscriptedPanel -edit -l (localizedPanelLabel(\"Graph Editor\")) -mbv $menusOkayInPanels  $panelName;\n\n\t\t\t$editorName = ($panelName+\"OutlineEd\");\n            outlinerEditor -e \n                -showShapes 1\n                -showAssignedMaterials 0\n                -showTimeEditor 1\n                -showReferenceNodes 0\n                -showReferenceMembers 0\n                -showAttributes 1\n                -showConnected 1\n                -showAnimCurvesOnly 1\n                -showMuteInfo 0\n                -organizeByLayer 1\n                -organizeByClip 1\n                -showAnimLayerWeight 1\n                -autoExpandLayers 1\n                -autoExpand 1\n                -showDagOnly 0\n                -showAssets 1\n                -showContainedOnly 0\n                -showPublishedAsConnected 0\n"
		+ "                -showParentContainers 1\n                -showContainerContents 0\n                -ignoreDagHierarchy 0\n                -expandConnections 1\n                -showUpstreamCurves 1\n                -showUnitlessCurves 1\n                -showCompounds 0\n                -showLeafs 1\n                -showNumericAttrsOnly 1\n                -highlightActive 0\n                -autoSelectNewObjects 1\n                -doNotSelectNewObjects 0\n                -dropIsParent 1\n                -transmitFilters 1\n                -setFilter \"0\" \n                -showSetMembers 0\n                -allowMultiSelection 1\n                -alwaysToggleSelect 0\n                -directSelect 0\n                -displayMode \"DAG\" \n                -expandObjects 0\n                -setsIgnoreFilters 1\n                -containersIgnoreFilters 0\n                -editAttrName 0\n                -showAttrValues 0\n                -highlightSecondary 0\n                -showUVAttrsOnly 0\n                -showTextureNodesOnly 0\n                -attrAlphaOrder \"default\" \n"
		+ "                -animLayerFilterOptions \"allAffecting\" \n                -sortOrder \"none\" \n                -longNames 0\n                -niceNames 1\n                -showNamespace 1\n                -showPinIcons 1\n                -mapMotionTrails 1\n                -ignoreHiddenAttribute 0\n                -ignoreOutlinerColor 0\n                -renderFilterVisible 0\n                $editorName;\n\n\t\t\t$editorName = ($panelName+\"GraphEd\");\n            animCurveEditor -e \n                -displayKeys 1\n                -displayTangents 0\n                -displayActiveKeys 0\n                -displayActiveKeyTangents 1\n                -displayInfinities 0\n                -displayValues 0\n                -autoFit 1\n                -snapTime \"integer\" \n                -snapValue \"none\" \n                -showResults \"off\" \n                -showBufferCurves \"off\" \n                -smoothness \"fine\" \n                -resultSamples 1\n                -resultScreenSamples 0\n                -resultUpdate \"delayed\" \n                -showUpstreamCurves 1\n"
		+ "                -showCurveNames 0\n                -showActiveCurveNames 0\n                -stackedCurves 0\n                -stackedCurvesMin -1\n                -stackedCurvesMax 1\n                -stackedCurvesSpace 0.2\n                -displayNormalized 0\n                -preSelectionHighlight 0\n                -constrainDrag 0\n                -classicMode 1\n                -valueLinesToggle 1\n                $editorName;\n\t\tif (!$useSceneConfig) {\n\t\t\tpanel -e -l $label $panelName;\n\t\t}\n\t}\n\n\n\t$panelName = `sceneUIReplacement -getNextScriptedPanel \"dopeSheetPanel\" (localizedPanelLabel(\"Dope Sheet\")) `;\n\tif (\"\" != $panelName) {\n\t\t$label = `panel -q -label $panelName`;\n\t\tscriptedPanel -edit -l (localizedPanelLabel(\"Dope Sheet\")) -mbv $menusOkayInPanels  $panelName;\n\n\t\t\t$editorName = ($panelName+\"OutlineEd\");\n            outlinerEditor -e \n                -showShapes 1\n                -showAssignedMaterials 0\n                -showTimeEditor 1\n                -showReferenceNodes 0\n                -showReferenceMembers 0\n"
		+ "                -showAttributes 1\n                -showConnected 1\n                -showAnimCurvesOnly 1\n                -showMuteInfo 0\n                -organizeByLayer 1\n                -organizeByClip 1\n                -showAnimLayerWeight 1\n                -autoExpandLayers 1\n                -autoExpand 0\n                -showDagOnly 0\n                -showAssets 1\n                -showContainedOnly 0\n                -showPublishedAsConnected 0\n                -showParentContainers 1\n                -showContainerContents 0\n                -ignoreDagHierarchy 0\n                -expandConnections 1\n                -showUpstreamCurves 1\n                -showUnitlessCurves 0\n                -showCompounds 1\n                -showLeafs 1\n                -showNumericAttrsOnly 1\n                -highlightActive 0\n                -autoSelectNewObjects 0\n                -doNotSelectNewObjects 1\n                -dropIsParent 1\n                -transmitFilters 0\n                -setFilter \"0\" \n                -showSetMembers 0\n"
		+ "                -allowMultiSelection 1\n                -alwaysToggleSelect 0\n                -directSelect 0\n                -displayMode \"DAG\" \n                -expandObjects 0\n                -setsIgnoreFilters 1\n                -containersIgnoreFilters 0\n                -editAttrName 0\n                -showAttrValues 0\n                -highlightSecondary 0\n                -showUVAttrsOnly 0\n                -showTextureNodesOnly 0\n                -attrAlphaOrder \"default\" \n                -animLayerFilterOptions \"allAffecting\" \n                -sortOrder \"none\" \n                -longNames 0\n                -niceNames 1\n                -showNamespace 1\n                -showPinIcons 0\n                -mapMotionTrails 1\n                -ignoreHiddenAttribute 0\n                -ignoreOutlinerColor 0\n                -renderFilterVisible 0\n                $editorName;\n\n\t\t\t$editorName = ($panelName+\"DopeSheetEd\");\n            dopeSheetEditor -e \n                -displayKeys 1\n                -displayTangents 0\n                -displayActiveKeys 0\n"
		+ "                -displayActiveKeyTangents 0\n                -displayInfinities 0\n                -displayValues 0\n                -autoFit 0\n                -snapTime \"integer\" \n                -snapValue \"none\" \n                -outliner \"dopeSheetPanel1OutlineEd\" \n                -showSummary 1\n                -showScene 0\n                -hierarchyBelow 0\n                -showTicks 1\n                -selectionWindow 0 0 0 0 \n                $editorName;\n\t\tif (!$useSceneConfig) {\n\t\t\tpanel -e -l $label $panelName;\n\t\t}\n\t}\n\n\n\t$panelName = `sceneUIReplacement -getNextScriptedPanel \"timeEditorPanel\" (localizedPanelLabel(\"Time Editor\")) `;\n\tif (\"\" != $panelName) {\n\t\t$label = `panel -q -label $panelName`;\n\t\tscriptedPanel -edit -l (localizedPanelLabel(\"Time Editor\")) -mbv $menusOkayInPanels  $panelName;\n\t\tif (!$useSceneConfig) {\n\t\t\tpanel -e -l $label $panelName;\n\t\t}\n\t}\n\n\n\t$panelName = `sceneUIReplacement -getNextScriptedPanel \"clipEditorPanel\" (localizedPanelLabel(\"Trax Editor\")) `;\n\tif (\"\" != $panelName) {\n\t\t$label = `panel -q -label $panelName`;\n"
		+ "\t\tscriptedPanel -edit -l (localizedPanelLabel(\"Trax Editor\")) -mbv $menusOkayInPanels  $panelName;\n\n\t\t\t$editorName = clipEditorNameFromPanel($panelName);\n            clipEditor -e \n                -displayKeys 0\n                -displayTangents 0\n                -displayActiveKeys 0\n                -displayActiveKeyTangents 0\n                -displayInfinities 0\n                -displayValues 0\n                -autoFit 0\n                -snapTime \"none\" \n                -snapValue \"none\" \n                -initialized 0\n                -manageSequencer 0 \n                $editorName;\n\t\tif (!$useSceneConfig) {\n\t\t\tpanel -e -l $label $panelName;\n\t\t}\n\t}\n\n\n\t$panelName = `sceneUIReplacement -getNextScriptedPanel \"sequenceEditorPanel\" (localizedPanelLabel(\"Camera Sequencer\")) `;\n\tif (\"\" != $panelName) {\n\t\t$label = `panel -q -label $panelName`;\n\t\tscriptedPanel -edit -l (localizedPanelLabel(\"Camera Sequencer\")) -mbv $menusOkayInPanels  $panelName;\n\n\t\t\t$editorName = sequenceEditorNameFromPanel($panelName);\n            clipEditor -e \n"
		+ "                -displayKeys 0\n                -displayTangents 0\n                -displayActiveKeys 0\n                -displayActiveKeyTangents 0\n                -displayInfinities 0\n                -displayValues 0\n                -autoFit 0\n                -snapTime \"none\" \n                -snapValue \"none\" \n                -initialized 0\n                -manageSequencer 1 \n                $editorName;\n\t\tif (!$useSceneConfig) {\n\t\t\tpanel -e -l $label $panelName;\n\t\t}\n\t}\n\n\n\t$panelName = `sceneUIReplacement -getNextScriptedPanel \"hyperGraphPanel\" (localizedPanelLabel(\"Hypergraph Hierarchy\")) `;\n\tif (\"\" != $panelName) {\n\t\t$label = `panel -q -label $panelName`;\n\t\tscriptedPanel -edit -l (localizedPanelLabel(\"Hypergraph Hierarchy\")) -mbv $menusOkayInPanels  $panelName;\n\n\t\t\t$editorName = ($panelName+\"HyperGraphEd\");\n            hyperGraph -e \n                -graphLayoutStyle \"hierarchicalLayout\" \n                -orientation \"horiz\" \n                -mergeConnections 0\n                -zoom 1\n                -animateTransition 0\n"
		+ "                -showRelationships 1\n                -showShapes 0\n                -showDeformers 0\n                -showExpressions 0\n                -showConstraints 0\n                -showConnectionFromSelected 0\n                -showConnectionToSelected 0\n                -showConstraintLabels 0\n                -showUnderworld 0\n                -showInvisible 0\n                -transitionFrames 1\n                -opaqueContainers 0\n                -freeform 0\n                -imagePosition 0 0 \n                -imageScale 1\n                -imageEnabled 0\n                -graphType \"DAG\" \n                -heatMapDisplay 0\n                -updateSelection 1\n                -updateNodeAdded 1\n                -useDrawOverrideColor 0\n                -limitGraphTraversal -1\n                -range 0 0 \n                -iconSize \"smallIcons\" \n                -showCachedConnections 0\n                $editorName;\n\t\tif (!$useSceneConfig) {\n\t\t\tpanel -e -l $label $panelName;\n\t\t}\n\t}\n\n\n\t$panelName = `sceneUIReplacement -getNextScriptedPanel \"hyperShadePanel\" (localizedPanelLabel(\"Hypershade\")) `;\n"
		+ "\tif (\"\" != $panelName) {\n\t\t$label = `panel -q -label $panelName`;\n\t\tscriptedPanel -edit -l (localizedPanelLabel(\"Hypershade\")) -mbv $menusOkayInPanels  $panelName;\n\t\tif (!$useSceneConfig) {\n\t\t\tpanel -e -l $label $panelName;\n\t\t}\n\t}\n\n\n\t$panelName = `sceneUIReplacement -getNextScriptedPanel \"visorPanel\" (localizedPanelLabel(\"Visor\")) `;\n\tif (\"\" != $panelName) {\n\t\t$label = `panel -q -label $panelName`;\n\t\tscriptedPanel -edit -l (localizedPanelLabel(\"Visor\")) -mbv $menusOkayInPanels  $panelName;\n\t\tif (!$useSceneConfig) {\n\t\t\tpanel -e -l $label $panelName;\n\t\t}\n\t}\n\n\n\t$panelName = `sceneUIReplacement -getNextScriptedPanel \"nodeEditorPanel\" (localizedPanelLabel(\"Node Editor\")) `;\n\tif (\"\" != $panelName) {\n\t\t$label = `panel -q -label $panelName`;\n\t\tscriptedPanel -edit -l (localizedPanelLabel(\"Node Editor\")) -mbv $menusOkayInPanels  $panelName;\n\n\t\t\t$editorName = ($panelName+\"NodeEditorEd\");\n            nodeEditor -e \n                -allAttributes 0\n                -allNodes 0\n                -autoSizeNodes 1\n                -consistentNameSize 1\n"
		+ "                -createNodeCommand \"nodeEdCreateNodeCommand\" \n                -connectNodeOnCreation 0\n                -connectOnDrop 0\n                -highlightConnections 0\n                -copyConnectionsOnPaste 0\n                -defaultPinnedState 0\n                -additiveGraphingMode 0\n                -settingsChangedCallback \"nodeEdSyncControls\" \n                -traversalDepthLimit -1\n                -keyPressCommand \"nodeEdKeyPressCommand\" \n                -nodeTitleMode \"name\" \n                -gridSnap 0\n                -gridVisibility 1\n                -crosshairOnEdgeDragging 0\n                -popupMenuScript \"nodeEdBuildPanelMenus\" \n                -showNamespace 1\n                -showShapes 1\n                -showSGShapes 0\n                -showTransforms 1\n                -useAssets 1\n                -syncedSelection 1\n                -extendToShapes 1\n                -activeTab -1\n                -editorMode \"default\" \n                $editorName;\n\t\tif (!$useSceneConfig) {\n\t\t\tpanel -e -l $label $panelName;\n"
		+ "\t\t}\n\t}\n\n\n\t$panelName = `sceneUIReplacement -getNextScriptedPanel \"createNodePanel\" (localizedPanelLabel(\"Create Node\")) `;\n\tif (\"\" != $panelName) {\n\t\t$label = `panel -q -label $panelName`;\n\t\tscriptedPanel -edit -l (localizedPanelLabel(\"Create Node\")) -mbv $menusOkayInPanels  $panelName;\n\t\tif (!$useSceneConfig) {\n\t\t\tpanel -e -l $label $panelName;\n\t\t}\n\t}\n\n\n\t$panelName = `sceneUIReplacement -getNextScriptedPanel \"polyTexturePlacementPanel\" (localizedPanelLabel(\"UV Editor\")) `;\n\tif (\"\" != $panelName) {\n\t\t$label = `panel -q -label $panelName`;\n\t\tscriptedPanel -edit -l (localizedPanelLabel(\"UV Editor\")) -mbv $menusOkayInPanels  $panelName;\n\t\tif (!$useSceneConfig) {\n\t\t\tpanel -e -l $label $panelName;\n\t\t}\n\t}\n\n\n\t$panelName = `sceneUIReplacement -getNextScriptedPanel \"renderWindowPanel\" (localizedPanelLabel(\"Render View\")) `;\n\tif (\"\" != $panelName) {\n\t\t$label = `panel -q -label $panelName`;\n\t\tscriptedPanel -edit -l (localizedPanelLabel(\"Render View\")) -mbv $menusOkayInPanels  $panelName;\n\t\tif (!$useSceneConfig) {\n\t\t\tpanel -e -l $label $panelName;\n"
		+ "\t\t}\n\t}\n\n\n\t$panelName = `sceneUIReplacement -getNextPanel \"shapePanel\" (localizedPanelLabel(\"Shape Editor\")) `;\n\tif (\"\" != $panelName) {\n\t\t$label = `panel -q -label $panelName`;\n\t\tshapePanel -edit -l (localizedPanelLabel(\"Shape Editor\")) -mbv $menusOkayInPanels  $panelName;\n\t\tif (!$useSceneConfig) {\n\t\t\tpanel -e -l $label $panelName;\n\t\t}\n\t}\n\n\n\t$panelName = `sceneUIReplacement -getNextPanel \"posePanel\" (localizedPanelLabel(\"Pose Editor\")) `;\n\tif (\"\" != $panelName) {\n\t\t$label = `panel -q -label $panelName`;\n\t\tposePanel -edit -l (localizedPanelLabel(\"Pose Editor\")) -mbv $menusOkayInPanels  $panelName;\n\t\tif (!$useSceneConfig) {\n\t\t\tpanel -e -l $label $panelName;\n\t\t}\n\t}\n\n\n\t$panelName = `sceneUIReplacement -getNextScriptedPanel \"dynRelEdPanel\" (localizedPanelLabel(\"Dynamic Relationships\")) `;\n\tif (\"\" != $panelName) {\n\t\t$label = `panel -q -label $panelName`;\n\t\tscriptedPanel -edit -l (localizedPanelLabel(\"Dynamic Relationships\")) -mbv $menusOkayInPanels  $panelName;\n\t\tif (!$useSceneConfig) {\n\t\t\tpanel -e -l $label $panelName;\n"
		+ "\t\t}\n\t}\n\n\n\t$panelName = `sceneUIReplacement -getNextScriptedPanel \"relationshipPanel\" (localizedPanelLabel(\"Relationship Editor\")) `;\n\tif (\"\" != $panelName) {\n\t\t$label = `panel -q -label $panelName`;\n\t\tscriptedPanel -edit -l (localizedPanelLabel(\"Relationship Editor\")) -mbv $menusOkayInPanels  $panelName;\n\t\tif (!$useSceneConfig) {\n\t\t\tpanel -e -l $label $panelName;\n\t\t}\n\t}\n\n\n\t$panelName = `sceneUIReplacement -getNextScriptedPanel \"referenceEditorPanel\" (localizedPanelLabel(\"Reference Editor\")) `;\n\tif (\"\" != $panelName) {\n\t\t$label = `panel -q -label $panelName`;\n\t\tscriptedPanel -edit -l (localizedPanelLabel(\"Reference Editor\")) -mbv $menusOkayInPanels  $panelName;\n\t\tif (!$useSceneConfig) {\n\t\t\tpanel -e -l $label $panelName;\n\t\t}\n\t}\n\n\n\t$panelName = `sceneUIReplacement -getNextScriptedPanel \"componentEditorPanel\" (localizedPanelLabel(\"Component Editor\")) `;\n\tif (\"\" != $panelName) {\n\t\t$label = `panel -q -label $panelName`;\n\t\tscriptedPanel -edit -l (localizedPanelLabel(\"Component Editor\")) -mbv $menusOkayInPanels  $panelName;\n"
		+ "\t\tif (!$useSceneConfig) {\n\t\t\tpanel -e -l $label $panelName;\n\t\t}\n\t}\n\n\n\t$panelName = `sceneUIReplacement -getNextScriptedPanel \"dynPaintScriptedPanelType\" (localizedPanelLabel(\"Paint Effects\")) `;\n\tif (\"\" != $panelName) {\n\t\t$label = `panel -q -label $panelName`;\n\t\tscriptedPanel -edit -l (localizedPanelLabel(\"Paint Effects\")) -mbv $menusOkayInPanels  $panelName;\n\t\tif (!$useSceneConfig) {\n\t\t\tpanel -e -l $label $panelName;\n\t\t}\n\t}\n\n\n\t$panelName = `sceneUIReplacement -getNextScriptedPanel \"scriptEditorPanel\" (localizedPanelLabel(\"Script Editor\")) `;\n\tif (\"\" != $panelName) {\n\t\t$label = `panel -q -label $panelName`;\n\t\tscriptedPanel -edit -l (localizedPanelLabel(\"Script Editor\")) -mbv $menusOkayInPanels  $panelName;\n\t\tif (!$useSceneConfig) {\n\t\t\tpanel -e -l $label $panelName;\n\t\t}\n\t}\n\n\n\t$panelName = `sceneUIReplacement -getNextScriptedPanel \"profilerPanel\" (localizedPanelLabel(\"Profiler Tool\")) `;\n\tif (\"\" != $panelName) {\n\t\t$label = `panel -q -label $panelName`;\n\t\tscriptedPanel -edit -l (localizedPanelLabel(\"Profiler Tool\")) -mbv $menusOkayInPanels  $panelName;\n"
		+ "\t\tif (!$useSceneConfig) {\n\t\t\tpanel -e -l $label $panelName;\n\t\t}\n\t}\n\n\n\t$panelName = `sceneUIReplacement -getNextScriptedPanel \"contentBrowserPanel\" (localizedPanelLabel(\"Content Browser\")) `;\n\tif (\"\" != $panelName) {\n\t\t$label = `panel -q -label $panelName`;\n\t\tscriptedPanel -edit -l (localizedPanelLabel(\"Content Browser\")) -mbv $menusOkayInPanels  $panelName;\n\t\tif (!$useSceneConfig) {\n\t\t\tpanel -e -l $label $panelName;\n\t\t}\n\t}\n\n\n\tif ($useSceneConfig) {\n        string $configName = `getPanel -cwl (localizedPanelLabel(\"Current Layout\"))`;\n        if (\"\" != $configName) {\n\t\t\tpanelConfiguration -edit -label (localizedPanelLabel(\"Current Layout\")) \n\t\t\t\t-userCreated false\n\t\t\t\t-defaultImage \"\"\n\t\t\t\t-image \"\"\n\t\t\t\t-sc false\n\t\t\t\t-configString \"global string $gMainPane; paneLayout -e -cn \\\"single\\\" -ps 1 100 100 $gMainPane;\"\n\t\t\t\t-removeAllPanels\n\t\t\t\t-ap false\n\t\t\t\t\t(localizedPanelLabel(\"Persp View\")) \n\t\t\t\t\t\"modelPanel\"\n"
		+ "\t\t\t\t\t\"$panelName = `modelPanel -unParent -l (localizedPanelLabel(\\\"Persp View\\\")) -mbv $menusOkayInPanels `;\\n$editorName = $panelName;\\nmodelEditor -e \\n    -cam `findStartUpCamera persp` \\n    -useInteractiveMode 0\\n    -displayLights \\\"default\\\" \\n    -displayAppearance \\\"smoothShaded\\\" \\n    -activeOnly 0\\n    -ignorePanZoom 0\\n    -wireframeOnShaded 0\\n    -headsUpDisplay 1\\n    -holdOuts 1\\n    -selectionHiliteDisplay 1\\n    -useDefaultMaterial 0\\n    -bufferMode \\\"double\\\" \\n    -twoSidedLighting 0\\n    -backfaceCulling 0\\n    -xray 0\\n    -jointXray 0\\n    -activeComponentsXray 0\\n    -displayTextures 0\\n    -smoothWireframe 0\\n    -lineWidth 1\\n    -textureAnisotropic 0\\n    -textureHilight 1\\n    -textureSampling 2\\n    -textureDisplay \\\"modulate\\\" \\n    -textureMaxSize 32768\\n    -fogging 0\\n    -fogSource \\\"fragment\\\" \\n    -fogMode \\\"linear\\\" \\n    -fogStart 0\\n    -fogEnd 100\\n    -fogDensity 0.1\\n    -fogColor 0.5 0.5 0.5 1 \\n    -depthOfFieldPreview 1\\n    -maxConstantTransparency 1\\n    -rendererName \\\"vp2Renderer\\\" \\n    -objectFilterShowInHUD 1\\n    -isFiltered 0\\n    -colorResolution 256 256 \\n    -bumpResolution 512 512 \\n    -textureCompression 0\\n    -transparencyAlgorithm \\\"frontAndBackCull\\\" \\n    -transpInShadows 0\\n    -cullingOverride \\\"none\\\" \\n    -lowQualityLighting 0\\n    -maximumNumHardwareLights 1\\n    -occlusionCulling 0\\n    -shadingModel 0\\n    -useBaseRenderer 0\\n    -useReducedRenderer 0\\n    -smallObjectCulling 0\\n    -smallObjectThreshold -1 \\n    -interactiveDisableShadows 0\\n    -interactiveBackFaceCull 0\\n    -sortTransparent 1\\n    -controllers 1\\n    -nurbsCurves 1\\n    -nurbsSurfaces 1\\n    -polymeshes 1\\n    -subdivSurfaces 1\\n    -planes 1\\n    -lights 1\\n    -cameras 1\\n    -controlVertices 1\\n    -hulls 1\\n    -grid 1\\n    -imagePlane 1\\n    -joints 1\\n    -ikHandles 1\\n    -deformers 1\\n    -dynamics 1\\n    -particleInstancers 1\\n    -fluids 1\\n    -hairSystems 1\\n    -follicles 1\\n    -nCloths 1\\n    -nParticles 1\\n    -nRigids 1\\n    -dynamicConstraints 1\\n    -locators 1\\n    -manipulators 1\\n    -pluginShapes 1\\n    -dimensions 1\\n    -handles 1\\n    -pivots 1\\n    -textures 1\\n    -strokes 1\\n    -motionTrails 1\\n    -clipGhosts 1\\n    -greasePencils 1\\n    -shadows 0\\n    -captureSequenceNumber -1\\n    -width 1319\\n    -height 716\\n    -sceneRenderFilter 0\\n    $editorName;\\nmodelEditor -e -viewSelected 0 $editorName;\\nmodelEditor -e \\n    -pluginObjects \\\"gpuCacheDisplayFilter\\\" 1 \\n    $editorName\"\n"
		+ "\t\t\t\t\t\"modelPanel -edit -l (localizedPanelLabel(\\\"Persp View\\\")) -mbv $menusOkayInPanels  $panelName;\\n$editorName = $panelName;\\nmodelEditor -e \\n    -cam `findStartUpCamera persp` \\n    -useInteractiveMode 0\\n    -displayLights \\\"default\\\" \\n    -displayAppearance \\\"smoothShaded\\\" \\n    -activeOnly 0\\n    -ignorePanZoom 0\\n    -wireframeOnShaded 0\\n    -headsUpDisplay 1\\n    -holdOuts 1\\n    -selectionHiliteDisplay 1\\n    -useDefaultMaterial 0\\n    -bufferMode \\\"double\\\" \\n    -twoSidedLighting 0\\n    -backfaceCulling 0\\n    -xray 0\\n    -jointXray 0\\n    -activeComponentsXray 0\\n    -displayTextures 0\\n    -smoothWireframe 0\\n    -lineWidth 1\\n    -textureAnisotropic 0\\n    -textureHilight 1\\n    -textureSampling 2\\n    -textureDisplay \\\"modulate\\\" \\n    -textureMaxSize 32768\\n    -fogging 0\\n    -fogSource \\\"fragment\\\" \\n    -fogMode \\\"linear\\\" \\n    -fogStart 0\\n    -fogEnd 100\\n    -fogDensity 0.1\\n    -fogColor 0.5 0.5 0.5 1 \\n    -depthOfFieldPreview 1\\n    -maxConstantTransparency 1\\n    -rendererName \\\"vp2Renderer\\\" \\n    -objectFilterShowInHUD 1\\n    -isFiltered 0\\n    -colorResolution 256 256 \\n    -bumpResolution 512 512 \\n    -textureCompression 0\\n    -transparencyAlgorithm \\\"frontAndBackCull\\\" \\n    -transpInShadows 0\\n    -cullingOverride \\\"none\\\" \\n    -lowQualityLighting 0\\n    -maximumNumHardwareLights 1\\n    -occlusionCulling 0\\n    -shadingModel 0\\n    -useBaseRenderer 0\\n    -useReducedRenderer 0\\n    -smallObjectCulling 0\\n    -smallObjectThreshold -1 \\n    -interactiveDisableShadows 0\\n    -interactiveBackFaceCull 0\\n    -sortTransparent 1\\n    -controllers 1\\n    -nurbsCurves 1\\n    -nurbsSurfaces 1\\n    -polymeshes 1\\n    -subdivSurfaces 1\\n    -planes 1\\n    -lights 1\\n    -cameras 1\\n    -controlVertices 1\\n    -hulls 1\\n    -grid 1\\n    -imagePlane 1\\n    -joints 1\\n    -ikHandles 1\\n    -deformers 1\\n    -dynamics 1\\n    -particleInstancers 1\\n    -fluids 1\\n    -hairSystems 1\\n    -follicles 1\\n    -nCloths 1\\n    -nParticles 1\\n    -nRigids 1\\n    -dynamicConstraints 1\\n    -locators 1\\n    -manipulators 1\\n    -pluginShapes 1\\n    -dimensions 1\\n    -handles 1\\n    -pivots 1\\n    -textures 1\\n    -strokes 1\\n    -motionTrails 1\\n    -clipGhosts 1\\n    -greasePencils 1\\n    -shadows 0\\n    -captureSequenceNumber -1\\n    -width 1319\\n    -height 716\\n    -sceneRenderFilter 0\\n    $editorName;\\nmodelEditor -e -viewSelected 0 $editorName;\\nmodelEditor -e \\n    -pluginObjects \\\"gpuCacheDisplayFilter\\\" 1 \\n    $editorName\"\n"
		+ "\t\t\t\t$configName;\n\n            setNamedPanelLayout (localizedPanelLabel(\"Current Layout\"));\n        }\n\n        panelHistory -e -clear mainPanelHistory;\n        sceneUIReplacement -clear;\n\t}\n\n\ngrid -spacing 5 -size 12 -divisions 5 -displayAxes yes -displayGridLines yes -displayDivisionLines yes -displayPerspectiveLabels no -displayOrthographicLabels no -displayAxesBold yes -perspectiveLabelPosition axis -orthographicLabelPosition edge;\nviewManip -drawCompass 0 -compassAngle 0 -frontParameters \"\" -homeParameters \"\" -selectionLockParameters \"\";\n}\n");
	setAttr ".st" 3;
createNode script -n "sceneConfigurationScriptNode";
	rename -uid "215E607B-4C9C-9A9B-905A-50BD5BFF3E25";
	setAttr ".b" -type "string" "playbackOptions -min 1 -max 120 -ast 1 -aet 200 ";
	setAttr ".st" 6;
createNode polySplitRing -n "polySplitRing10";
	rename -uid "4375FFC3-4024-5502-7EA0-A993E181B8E9";
	setAttr ".uopa" yes;
	setAttr ".ics" -type "componentList" 11 "e[21]" "e[23]" "e[25]" "e[28:29]" "e[31]" "e[55]" "e[66]" "e[82]" "e[89]" "e[96]" "e[99]";
	setAttr ".ix" -type "matrix" 1 0 0 0 0 0.10942136736982076 0 0 0 0 1 0 0 0 0 1;
	setAttr ".wt" 0.52826601266860962;
	setAttr ".dr" no;
	setAttr ".re" 66;
	setAttr ".sma" 29.999999999999996;
	setAttr ".p[0]"  0 0 1;
	setAttr ".fq" yes;
createNode polySplitRing -n "polySplitRing11";
	rename -uid "9FF0C33E-4285-4EAE-1F34-6CBF867FA9E4";
	setAttr ".uopa" yes;
	setAttr ".ics" -type "componentList" 11 "e[33]" "e[35]" "e[37]" "e[40:41]" "e[43]" "e[57]" "e[64]" "e[80]" "e[87]" "e[94]" "e[101]";
	setAttr ".ix" -type "matrix" 1 0 0 0 0 0.10942136736982076 0 0 0 0 1 0 0 0 0 1;
	setAttr ".wt" 0.53868353366851807;
	setAttr ".re" 64;
	setAttr ".sma" 29.999999999999996;
	setAttr ".p[0]"  0 0 1;
	setAttr ".fq" yes;
createNode polySplitRing -n "polySplitRing12";
	rename -uid "CD56F62B-4C63-B9E8-6600-80A337C2734B";
	setAttr ".uopa" yes;
	setAttr ".ics" -type "componentList" 11 "e[6:7]" "e[13]" "e[45]" "e[47]" "e[49]" "e[59]" "e[62]" "e[78]" "e[85]" "e[92]" "e[103]";
	setAttr ".ix" -type "matrix" 1 0 0 0 0 0.10942136736982076 0 0 0 0 1 0 0 0 0 1;
	setAttr ".wt" 0.45472070574760437;
	setAttr ".re" 62;
	setAttr ".sma" 29.999999999999996;
	setAttr ".p[0]"  0 0 1;
	setAttr ".fq" yes;
createNode polySplitRing -n "polySplitRing13";
	rename -uid "6E0E37F8-4150-2EC9-F8F6-1389E4B5DBF5";
	setAttr ".uopa" yes;
	setAttr ".ics" -type "componentList" 17 "e[0:3]" "e[18]" "e[24]" "e[30]" "e[36]" "e[42]" "e[48]" "e[70]" "e[74]" "e[107]" "e[112]" "e[122]" "e[134]" "e[146]" "e[158]" "e[170]" "e[182]";
	setAttr ".ix" -type "matrix" 1 0 0 0 0 0.10942136736982076 0 0 0 0 1 0 0 0 0 1;
	setAttr ".wt" 0.74415433406829834;
	setAttr ".dr" no;
	setAttr ".re" 0;
	setAttr ".sma" 29.999999999999996;
	setAttr ".p[0]"  0 0 1;
	setAttr ".fq" yes;
createNode polySplitRing -n "polySplitRing14";
	rename -uid "18E536F0-4B70-3CC2-1308-01A094A8EB45";
	setAttr ".uopa" yes;
	setAttr ".ics" -type "componentList" 17 "e[0:3]" "e[24]" "e[36]" "e[48]" "e[70]" "e[74]" "e[112]" "e[134]" "e[158]" "e[182]" "e[209]" "e[211]" "e[213]" "e[215]" "e[217]" "e[219]" "e[221]";
	setAttr ".ix" -type "matrix" 1 0 0 0 0 0.10942136736982076 0 0 0 0 1 0 0 0 0 1;
	setAttr ".wt" 0.66658389568328857;
	setAttr ".dr" no;
	setAttr ".re" 0;
	setAttr ".sma" 29.999999999999996;
	setAttr ".p[0]"  0 0 1;
	setAttr ".fq" yes;
createNode polySplitRing -n "polySplitRing15";
	rename -uid "90469084-4DF0-B874-A99E-1F9FFF573DAD";
	setAttr ".uopa" yes;
	setAttr ".ics" -type "componentList" 17 "e[0:3]" "e[24]" "e[36]" "e[48]" "e[70]" "e[74]" "e[112]" "e[134]" "e[158]" "e[182]" "e[248]" "e[250]" "e[252]" "e[254]" "e[256]" "e[258]" "e[260]";
	setAttr ".ix" -type "matrix" 1 0 0 0 0 0.10942136736982076 0 0 0 0 1 0 0 0 0 1;
	setAttr ".wt" 0.43454679846763611;
	setAttr ".re" 0;
	setAttr ".sma" 29.999999999999996;
	setAttr ".p[0]"  0 0 1;
	setAttr ".fq" yes;
createNode polyExtrudeEdge -n "polyExtrudeEdge1";
	rename -uid "1ED856D5-4CE8-1937-2CE6-D88DBE84105C";
	setAttr ".uopa" yes;
	setAttr ".ics" -type "componentList" 15 "e[0:1]" "e[4:5]" "e[10:11]" "e[58]" "e[60]" "e[76]" "e[83]" "e[90]" "e[102]" "e[186]" "e[223]" "e[225]" "e[262]" "e[264]" "e[301]";
	setAttr ".ix" -type "matrix" 1 0 0 0 0 0.10942136736982076 0 0 0 0 1 0 0 0 0 1;
	setAttr ".ws" yes;
	setAttr ".pvt" -type "float3" 0 0 0.5 ;
	setAttr ".rs" 63795;
	setAttr ".lt" -type "double3" 0 0.1431335516999743 6.3564065877474685e-17 ;
	setAttr ".c[0]"  0 1 1;
	setAttr ".cbn" -type "double3" -0.5 -0.042136307309120602 0.5 ;
	setAttr ".cbx" -type "double3" 0.5 0.042136307309120602 0.5 ;
select -ne :time1;
	setAttr ".o" 1;
	setAttr ".unw" 1;
select -ne :hardwareRenderingGlobals;
	setAttr ".otfna" -type "stringArray" 22 "NURBS Curves" "NURBS Surfaces" "Polygons" "Subdiv Surface" "Particles" "Particle Instance" "Fluids" "Strokes" "Image Planes" "UI" "Lights" "Cameras" "Locators" "Joints" "IK Handles" "Deformers" "Motion Trails" "Components" "Hair Systems" "Follicles" "Misc. UI" "Ornaments"  ;
	setAttr ".otfva" -type "Int32Array" 22 0 1 1 1 1 1
		 1 1 1 0 0 0 0 0 0 0 0 0
		 0 0 0 0 ;
	setAttr ".fprt" yes;
select -ne :renderPartition;
	setAttr -s 2 ".st";
select -ne :renderGlobalsList1;
select -ne :defaultShaderList1;
	setAttr -s 4 ".s";
select -ne :postProcessList1;
	setAttr -s 2 ".p";
select -ne :defaultRenderingList1;
select -ne :initialShadingGroup;
	setAttr ".ro" yes;
select -ne :initialParticleSE;
	setAttr ".ro" yes;
select -ne :defaultRenderGlobals;
	setAttr ".ren" -type "string" "arnold";
select -ne :defaultResolution;
	setAttr ".pa" 1;
select -ne :hardwareRenderGlobals;
	setAttr ".ctrs" 256;
	setAttr ".btrs" 512;
select -ne :ikSystem;
	setAttr -s 4 ".sol";
connectAttr "polyExtrudeEdge1.out" "pCubeShape1.i";
connectAttr "polyTweakUV4.uvtk[0]" "pCubeShape1.uvst[0].uvtw";
relationship "link" ":lightLinker1" ":initialShadingGroup.message" ":defaultLightSet.message";
relationship "link" ":lightLinker1" ":initialParticleSE.message" ":defaultLightSet.message";
relationship "shadowLink" ":lightLinker1" ":initialShadingGroup.message" ":defaultLightSet.message";
relationship "shadowLink" ":lightLinker1" ":initialParticleSE.message" ":defaultLightSet.message";
connectAttr "layerManager.dli[0]" "defaultLayer.id";
connectAttr "renderLayerManager.rlmi[0]" "defaultRenderLayer.rlid";
connectAttr "polyCube1.out" "polySplitRing1.ip";
connectAttr "pCubeShape1.wm" "polySplitRing1.mp";
connectAttr "polySplitRing1.out" "polySplitRing2.ip";
connectAttr "pCubeShape1.wm" "polySplitRing2.mp";
connectAttr "polySplitRing2.out" "polySplitRing3.ip";
connectAttr "pCubeShape1.wm" "polySplitRing3.mp";
connectAttr "polySplitRing3.out" "polySplitRing4.ip";
connectAttr "pCubeShape1.wm" "polySplitRing4.mp";
connectAttr "polySplitRing4.out" "polySplitRing5.ip";
connectAttr "pCubeShape1.wm" "polySplitRing5.mp";
connectAttr "polySplitRing5.out" "polyTweakUV1.ip";
connectAttr "polyTweak1.out" "polyMergeVert1.ip";
connectAttr "pCubeShape1.wm" "polyMergeVert1.mp";
connectAttr "polyTweakUV1.out" "polyTweak1.ip";
connectAttr "polyMergeVert1.out" "polyTweakUV2.ip";
connectAttr "polyTweak2.out" "polyMergeVert2.ip";
connectAttr "pCubeShape1.wm" "polyMergeVert2.mp";
connectAttr "polyTweakUV2.out" "polyTweak2.ip";
connectAttr "polyMergeVert2.out" "polyTweakUV3.ip";
connectAttr "polyTweak3.out" "polyMergeVert3.ip";
connectAttr "pCubeShape1.wm" "polyMergeVert3.mp";
connectAttr "polyTweakUV3.out" "polyTweak3.ip";
connectAttr "polyMergeVert3.out" "polyTweakUV4.ip";
connectAttr "polyTweak4.out" "polyMergeVert4.ip";
connectAttr "pCubeShape1.wm" "polyMergeVert4.mp";
connectAttr "polyTweakUV4.out" "polyTweak4.ip";
connectAttr "polyMergeVert4.out" "polyExtrudeFace1.ip";
connectAttr "pCubeShape1.wm" "polyExtrudeFace1.mp";
connectAttr "polyExtrudeFace1.out" "polyTweak5.ip";
connectAttr "polyTweak5.out" "deleteComponent1.ig";
connectAttr "polyTweak6.out" "polySplitRing6.ip";
connectAttr "pCubeShape1.wm" "polySplitRing6.mp";
connectAttr "deleteComponent1.og" "polyTweak6.ip";
connectAttr "polySplitRing6.out" "polySplitRing7.ip";
connectAttr "pCubeShape1.wm" "polySplitRing7.mp";
connectAttr "polySplitRing7.out" "polySplitRing8.ip";
connectAttr "pCubeShape1.wm" "polySplitRing8.mp";
connectAttr "polySplitRing8.out" "polySplitRing9.ip";
connectAttr "pCubeShape1.wm" "polySplitRing9.mp";
connectAttr "polySplitRing9.out" "polyTweak7.ip";
connectAttr "polyTweak7.out" "polySplit1.ip";
connectAttr "polySplit1.out" "polySplit2.ip";
connectAttr "polyTweak8.out" "polySoftEdge1.ip";
connectAttr "pCubeShape1.wm" "polySoftEdge1.mp";
connectAttr "polySplit2.out" "polyTweak8.ip";
connectAttr "polySoftEdge1.out" "polySoftEdge2.ip";
connectAttr "pCubeShape1.wm" "polySoftEdge2.mp";
connectAttr "polySoftEdge2.out" "polySplitRing10.ip";
connectAttr "pCubeShape1.wm" "polySplitRing10.mp";
connectAttr "polySplitRing10.out" "polySplitRing11.ip";
connectAttr "pCubeShape1.wm" "polySplitRing11.mp";
connectAttr "polySplitRing11.out" "polySplitRing12.ip";
connectAttr "pCubeShape1.wm" "polySplitRing12.mp";
connectAttr "polySplitRing12.out" "polySplitRing13.ip";
connectAttr "pCubeShape1.wm" "polySplitRing13.mp";
connectAttr "polySplitRing13.out" "polySplitRing14.ip";
connectAttr "pCubeShape1.wm" "polySplitRing14.mp";
connectAttr "polySplitRing14.out" "polySplitRing15.ip";
connectAttr "pCubeShape1.wm" "polySplitRing15.mp";
connectAttr "polySplitRing15.out" "polyExtrudeEdge1.ip";
connectAttr "pCubeShape1.wm" "polyExtrudeEdge1.mp";
connectAttr "defaultRenderLayer.msg" ":defaultRenderingList1.r" -na;
connectAttr "pCubeShape1.iog" ":initialShadingGroup.dsm" -na;
// End of ChipBag_03.ma
